{
    "at_pgsat_date.txt": {
        "global_cache": false,
        "version_id": 1000070,
        "version_string": "1.0.0",
        "hash": "44749712dbec183e983dcd78a7736c41"
    },
    "at_pgsat_datetime.txt": {
        "global_cache": false,
        "version_id": 1000070,
        "version_string": "1.0.0",
        "hash": "da9c83250288c94613605b535c26c648"
    },
    "at_pgsat_generateTime.txt": {
        "global_cache": false,
        "version_id": 1000070,
        "version_string": "1.0.0",
        "hash": "a35c0789c8ac33cceffcc473cdd1c18e"
    },
    "at_pgsat_pageTime.txt": {
        "global_cache": false,
        "version_id": 1000070,
        "version_string": "1.0.0",
        "hash": "98434f45641dd4db7ff6fea235d6b189"
    },
    "at_pgsat_time.txt": {
        "global_cache": false,
        "version_id": 1000070,
        "version_string": "1.0.0",
        "hash": "a76d4ef5f3f6a672bbfab2865563e530"
    },
    "permission.general_at_pgsat_stats.txt": {
        "global_cache": false,
        "version_id": 1000070,
        "version_string": "1.0.0",
        "hash": "4a21182cf48af1d4093ca0c5d92d5c68"
    },
    "permission.general_at_pgsat_time.txt": {
        "global_cache": false,
        "version_id": 1000070,
        "version_string": "1.0.0",
        "hash": "5124ca1cf7f4428e23c053ea9d632a98"
    },
    "style_prop.at_pgsat_dateTime.txt": {
        "global_cache": false,
        "version_id": 1000070,
        "version_string": "1.0.0",
        "hash": "7ac5a1ab23d01d181148ba8cc6c45313"
    },
    "style_prop_desc.at_pgsat_dateTime.txt": {
        "global_cache": false,
        "version_id": 1000070,
        "version_string": "1.0.0",
        "hash": "596b20984642ebada2720f3f32993879"
    }
}